animation{
  name = "closed",
  src_image = "entities/trash_treasure_oil.png",
  directions = {
    { x = 16, y = 0, frame_width = 16, frame_height = 16, origin_x = 8, origin_y = 13 },
  },
}
animation{
  name = "open",
  src_image = "entities/trash_treasure_oil.png",
  directions = {
    { x = 32, y = 0, frame_width = 16, frame_height = 16, origin_x = 8, origin_y = 13 },
  },
}
