animation{
  name = "stopped",
  src_image = "entities/machinery.png",
  directions = {
    { x = 48, y = 0, frame_width = 16, frame_height = 16, origin_x = 8, origin_y = 13 },
    { x = 48, y = 0, frame_width = 16, frame_height = 16, origin_x = 8, origin_y = 13 },
    { x = 48, y = 0, frame_width = 16, frame_height = 16, origin_x = 8, origin_y = 13 },
    { x = 48, y = 0, frame_width = 16, frame_height = 16, origin_x = 8, origin_y = 13 },
  },
}
